…
#renamed Date variable for consistency and joining
updated_daily_sleep <- rename(updated_daily_sleep,activity_date=sleep_day)
updated_weight_log <- rename(updated_weight_log,activity_date=date) 
  
#convert all Date variables from Character to Date by adding casted_date variable
updated_daily_sleep$casted_date <- as.Date(mdy_hms(updated_daily_sleep$activity_date))
updated_daily_activity$casted_date <- as.Date(mdy(updated_daily_activity$activity_date))
updated_weight_log$casted_date <- as.Date(mdy_hms(updated_weight_log$activity_date))

#arrange by date
updated_daily_sleep %>% arrange(casted_date)
```

    ## # A tibble: 410 x 6
    ##          id activity_date    total_sleep_rec~ total_minutes_as~ total_time_in_b~
    ##       <dbl> <chr>                       <dbl>             <dbl>            <dbl>
    ##  1   1.50e9 4/12/2016 12:00~                1               327              346
    ##  2   1.93e9 4/12/2016 12:00~                3               750              775
    ##  3   2.03e9 4/12/2016 12:00~                1               503              546
    ##  4   3.98e9 4/12/2016 12:00~                1               274              469
    ##  5   4.02e9 4/12/2016 12:00~                1               501              541
    ##  6   4.45e9 4/12/2016 12:00~                2               429              457
    ##  7   4.70e9 4/12/2016 12:00~                1               425              439
    ##  8   5.55e9 4/12/2016 12:00~                1               441              464
    ##  9   5.58e9 4/12/2016 12:00~                1               419              438
    ## 10   6.96e9 4/12/2016 12:00~                1               366              387
    ## # ... with 400 more rows, and 1 more variable: casted_date <date>

``` r
updated_daily_activity %>% arrange(casted_date)
```

    ## # A tibble: 940 x 16
    ##            id activity_date total_steps total_distance tracker_distance
    ##         <dbl> <chr>               <dbl>          <dbl>            <dbl>
    ##  1 1503960366 4/12/2016           13162          8.5              8.5  
    ##  2 1624580081 4/12/2016            8163          5.31             5.31 
    ##  3 1644430081 4/12/2016           10694          7.77             7.77 
    ##  4 1844505072 4/12/2016            6697          4.43             4.43 
    ##  5 1927972279 4/12/2016             678          0.470            0.470
    ##  6 2022484408 4/12/2016           11875          8.34             8.34 
    ##  7 2026352035 4/12/2016            4414          2.74             2.74 
    ##  8 2320127002 4/12/2016           10725          7.49             7.49 
    ##  9 2347167796 4/12/2016           10113          6.83             6.83 
    ## 10 2873212765 4/12/2016            8796          5.91             5.91 
    ## # ... with 930 more rows, and 11 more variables:
    ## #   logged_activities_distance <dbl>, very_active_distance <dbl>,
    ## #   moderately_active_distance <dbl>, light_active_distance <dbl>,
    ## #   sedentary_active_distance <dbl>, very_active_minutes <dbl>,
    ## #   fairly_active_minutes <dbl>, lightly_active_minutes <dbl>,
    ## #   sedentary_minutes <dbl>, calories <dbl>, casted_date <date>

``` r
updated_weight_log %>% arrange(casted_date)
```

    ## # A tibble: 67 x 9
    ##          id activity_date   weight_kg weight_pounds   fat   bmi is_manual_report
    ##       <dbl> <chr>               <dbl>         <dbl> <dbl> <dbl> <lgl>           
    ##  1   6.96e9 4/12/2016 11:5~      62.5          138.    NA  24.4 TRUE            
    ##  2   8.88e9 4/12/2016 6:47~      85.8          189.    NA  25.7 FALSE           
    ##  3   1.93e9 4/13/2016 1:08~     134.           294.    NA  47.5 FALSE           
    ##  4   6.96e9 4/13/2016 11:5~      62.1          137.    NA  24.2 TRUE            
    ##  5   8.88e9 4/13/2016 6:55~      84.9          187.    NA  25.4 FALSE           
    ##  6   6.96e9 4/14/2016 11:5~      61.7          136.    NA  24.1 TRUE            
    ##  7   8.88e9 4/14/2016 6:48~      84.5          186.    NA  25.3 FALSE           
    ##  8   6.96e9 4/15/2016 11:5~      61.5          136.    NA  24   TRUE            
    ##  9   6.96e9 4/16/2016 11:5~      62            137.    NA  24.2 TRUE            
    ## 10   8.88e9 4/16/2016 1:39~      85.5          188.    NA  25.6 FALSE           
    ## # ... with 57 more rows, and 2 more variables: log_id <dbl>, casted_date <date>
…
